<?xml version="1.0" encoding="UTF-8" standalone="no"?>
<svg
   xmlns:dc="http://purl.org/dc/elements/1.1/"
   xmlns:cc="http://creativecommons.org/ns#"
   xmlns:rdf="http://www.w3.org/1999/02/22-rdf-syntax-ns#"
   xmlns:svg="http://www.w3.org/2000/svg"
   xmlns="http://www.w3.org/2000/svg"
   id="svg8"
   version="1.1"
   viewBox="0 0 400000 400000"
   height="1000"
   width="1000">
  <defs
     id="defs2" />
  <metadata
     id="metadata5">
    <rdf:RDF>
      <cc:Work
         rdf:about="">
        <dc:format>image/svg+xml</dc:format>
        <dc:type
           rdf:resource="http://purl.org/dc/dcmitype/StillImage" />
        <dc:title></dc:title>
        <dc:publisher>
          <cc:Agent>
            <dc:title>Garrett Cornwell</dc:title>
          </cc:Agent>
        </dc:publisher>
      </cc:Work>
    </rdf:RDF>
  </metadata>
  <g
     transform="translate(0,-32.41665)"
     id="layer1">
    <path
       d="M 235992.17,44133.212 A 160000,160000 0 0 1 358971.5,218144.94 160000,160000 0 0 1 200000,360032.42 160000,160000 0 0 1 41028.503,218144.93 160000,160000 0 0 1 164007.83,44133.211"
       style="fill:none;stroke:#000000;stroke-width:20000;stroke-linecap:round;stroke-miterlimit:4;stroke-dasharray:none"
       id="path12" />
  </g>
</svg>
